EESchema Schematic File Version 4
EELAYER 30 0
EELAYER END
$Descr A4 11693 8268
encoding utf-8
Sheet 1 1
Title ""
Date ""
Rev ""
Comp ""
Comment1 ""
Comment2 ""
Comment3 ""
Comment4 ""
$EndDescr
$Comp
L sma:SMA J10
U 1 1 5F5FCB5A
P 1850 2400
F 0 "J10" H 1800 3053 60  0000 C CNN
F 1 "SMA" H 1800 2947 60  0000 C CNN
F 2 "lib_kicad:SMA" H 1800 2849 50  0000 C CNN
F 3 "" H 1850 2400 50  0001 C CNN
	1    1850 2400
	-1   0    0    -1  
$EndComp
$Comp
L sma:SMA J20
U 1 1 5F5FD34D
P 1600 4950
F 0 "J20" H 1550 5603 60  0000 C CNN
F 1 "SMA" H 1550 5497 60  0000 C CNN
F 2 "lib_kicad:SMA" H 1550 5399 50  0000 C CNN
F 3 "" H 1600 4950 50  0001 C CNN
	1    1600 4950
	-1   0    0    -1  
$EndComp
$Comp
L Device:R R10
U 1 1 5F5FD856
P 4700 3050
F 0 "R10" H 4770 3096 50  0000 L CNN
F 1 "50R" H 4770 3005 50  0000 L CNN
F 2 "Resistor_SMD:R_0603_1608Metric_Pad1.05x0.95mm_HandSolder" V 4630 3050 50  0001 C CNN
F 3 "~" H 4700 3050 50  0001 C CNN
	1    4700 3050
	1    0    0    -1  
$EndComp
$Comp
L Device:R R11
U 1 1 5F5FF160
P 6250 3050
F 0 "R11" H 6320 3096 50  0000 L CNN
F 1 "220k" H 6320 3005 50  0000 L CNN
F 2 "Resistor_SMD:R_0603_1608Metric_Pad1.05x0.95mm_HandSolder" V 6180 3050 50  0001 C CNN
F 3 "~" H 6250 3050 50  0001 C CNN
	1    6250 3050
	1    0    0    -1  
$EndComp
$Comp
L Device:R R20
U 1 1 5F5FF36E
P 4700 3950
F 0 "R20" H 4770 3996 50  0000 L CNN
F 1 "50R" H 4770 3905 50  0000 L CNN
F 2 "Resistor_SMD:R_0603_1608Metric_Pad1.05x0.95mm_HandSolder" V 4630 3950 50  0001 C CNN
F 3 "~" H 4700 3950 50  0001 C CNN
	1    4700 3950
	1    0    0    -1  
$EndComp
$Comp
L Device:R R21
U 1 1 5F5FF6E7
P 6250 3950
F 0 "R21" H 6320 3996 50  0000 L CNN
F 1 "220k" H 6320 3905 50  0000 L CNN
F 2 "Resistor_SMD:R_0603_1608Metric_Pad1.05x0.95mm_HandSolder" V 6180 3950 50  0001 C CNN
F 3 "~" H 6250 3950 50  0001 C CNN
	1    6250 3950
	1    0    0    -1  
$EndComp
$Comp
L Device:D D10
U 1 1 5F600124
P 5450 2900
F 0 "D10" H 5450 2683 50  0000 C CNN
F 1 "D" H 5450 2774 50  0000 C CNN
F 2 "Diode_SMD:D_SOD-323_HandSoldering" H 5450 2900 50  0001 C CNN
F 3 "~" H 5450 2900 50  0001 C CNN
	1    5450 2900
	-1   0    0    1   
$EndComp
$Comp
L Device:D D20
U 1 1 5F6007F3
P 5100 3800
F 0 "D20" H 5100 3583 50  0000 C CNN
F 1 "D" H 5100 3674 50  0000 C CNN
F 2 "Diode_SMD:D_SOD-323_HandSoldering" H 5100 3800 50  0001 C CNN
F 3 "~" H 5100 3800 50  0001 C CNN
	1    5100 3800
	-1   0    0    1   
$EndComp
Wire Wire Line
	4950 3800 4700 3800
Wire Wire Line
	4700 2900 5300 2900
$Comp
L power:GND #PWR0101
U 1 1 5F601918
P 4700 3200
F 0 "#PWR0101" H 4700 2950 50  0001 C CNN
F 1 "GND" H 4705 3027 50  0000 C CNN
F 2 "" H 4700 3200 50  0001 C CNN
F 3 "" H 4700 3200 50  0001 C CNN
	1    4700 3200
	1    0    0    -1  
$EndComp
$Comp
L power:GND #PWR0102
U 1 1 5F6025B8
P 6250 3200
F 0 "#PWR0102" H 6250 2950 50  0001 C CNN
F 1 "GND" H 6255 3027 50  0000 C CNN
F 2 "" H 6250 3200 50  0001 C CNN
F 3 "" H 6250 3200 50  0001 C CNN
	1    6250 3200
	1    0    0    -1  
$EndComp
$Comp
L power:GND #PWR0103
U 1 1 5F602807
P 6250 4100
F 0 "#PWR0103" H 6250 3850 50  0001 C CNN
F 1 "GND" H 6255 3927 50  0000 C CNN
F 2 "" H 6250 4100 50  0001 C CNN
F 3 "" H 6250 4100 50  0001 C CNN
	1    6250 4100
	1    0    0    -1  
$EndComp
$Comp
L power:GND #PWR0104
U 1 1 5F602B31
P 4700 4100
F 0 "#PWR0104" H 4700 3850 50  0001 C CNN
F 1 "GND" H 4705 3927 50  0000 C CNN
F 2 "" H 4700 4100 50  0001 C CNN
F 3 "" H 4700 4100 50  0001 C CNN
	1    4700 4100
	1    0    0    -1  
$EndComp
$Comp
L Device:C C10
U 1 1 5F602F2D
P 5750 3100
F 0 "C10" H 5865 3146 50  0000 L CNN
F 1 "0.1u" H 5865 3055 50  0000 L CNN
F 2 "Capacitor_SMD:C_0603_1608Metric_Pad1.05x0.95mm_HandSolder" H 5788 2950 50  0001 C CNN
F 3 "~" H 5750 3100 50  0001 C CNN
	1    5750 3100
	1    0    0    -1  
$EndComp
Wire Wire Line
	5600 2900 5750 2900
Connection ~ 5750 2900
Wire Wire Line
	5750 2900 6250 2900
$Comp
L Device:C C20
U 1 1 5F6143D8
P 5750 4000
F 0 "C20" H 5865 4046 50  0000 L CNN
F 1 "0.1u" H 5865 3955 50  0000 L CNN
F 2 "Capacitor_SMD:C_0603_1608Metric_Pad1.05x0.95mm_HandSolder" H 5788 3850 50  0001 C CNN
F 3 "~" H 5750 4000 50  0001 C CNN
	1    5750 4000
	1    0    0    -1  
$EndComp
$Comp
L power:GND #PWR0105
U 1 1 5F61BDAF
P 5750 4150
F 0 "#PWR0105" H 5750 3900 50  0001 C CNN
F 1 "GND" H 5755 3977 50  0000 C CNN
F 2 "" H 5750 4150 50  0001 C CNN
F 3 "" H 5750 4150 50  0001 C CNN
	1    5750 4150
	1    0    0    -1  
$EndComp
Wire Wire Line
	5750 2950 5750 2900
Wire Wire Line
	5250 3800 5750 3800
Wire Wire Line
	5750 3850 5750 3800
Connection ~ 5750 3800
Wire Wire Line
	5750 3800 6250 3800
$Comp
L power:GND #PWR0106
U 1 1 5F61D114
P 5750 3250
F 0 "#PWR0106" H 5750 3000 50  0001 C CNN
F 1 "GND" H 5755 3077 50  0000 C CNN
F 2 "" H 5750 3250 50  0001 C CNN
F 3 "" H 5750 3250 50  0001 C CNN
	1    5750 3250
	1    0    0    -1  
$EndComp
$Comp
L Device:Transformer_1P_1S T10
U 1 1 5F61DECB
P 3350 2500
F 0 "T10" V 3304 2744 50  0000 L CNN
F 1 "Transformer_1OP_1S" V 3395 2744 50  0000 L CNN
F 2 "Transformer_THT:Transformer_Toroid_Horizontal_D10.5mm_Amidon-T37" H 3350 2500 50  0001 C CNN
F 3 "~" H 3350 2500 50  0001 C CNN
	1    3350 2500
	0    1    1    0   
$EndComp
$Comp
L Device:Transformer_1P_1S T20
U 1 1 5F61EC1B
P 2550 4000
F 0 "T20" H 2550 4381 50  0000 C CNN
F 1 "Transformer_1P_10S" H 2550 4290 50  0000 C CNN
F 2 "Transformer_THT:Transformer_Toroid_Horizontal_D10.5mm_Amidon-T37" H 2550 4000 50  0001 C CNN
F 3 "~" H 2550 4000 50  0001 C CNN
	1    2550 4000
	1    0    0    -1  
$EndComp
$Comp
L power:GND #PWR0107
U 1 1 5F62C563
P 3550 2100
F 0 "#PWR0107" H 3550 1850 50  0001 C CNN
F 1 "GND" H 3555 1927 50  0000 C CNN
F 2 "" H 3550 2100 50  0001 C CNN
F 3 "" H 3550 2100 50  0001 C CNN
	1    3550 2100
	-1   0    0    1   
$EndComp
Wire Wire Line
	3550 2900 4700 2900
Connection ~ 4700 2900
$Comp
L power:GND #PWR0108
U 1 1 5F637A1C
P 2950 4200
F 0 "#PWR0108" H 2950 3950 50  0001 C CNN
F 1 "GND" H 2955 4027 50  0000 C CNN
F 2 "" H 2950 4200 50  0001 C CNN
F 3 "" H 2950 4200 50  0001 C CNN
	1    2950 4200
	1    0    0    -1  
$EndComp
Wire Wire Line
	2150 4200 2150 4650
Wire Wire Line
	2150 4650 1750 4650
Wire Wire Line
	1800 2300 1850 2300
Wire Wire Line
	1850 2300 1900 2300
Connection ~ 1850 2300
Wire Wire Line
	1900 2300 1950 2300
Connection ~ 1900 2300
Wire Wire Line
	1900 2300 1900 2400
$Comp
L power:GND #PWR0109
U 1 1 5F65ED15
P 1900 2400
F 0 "#PWR0109" H 1900 2150 50  0001 C CNN
F 1 "GND" H 1905 2227 50  0000 C CNN
F 2 "" H 1900 2400 50  0001 C CNN
F 3 "" H 1900 2400 50  0001 C CNN
	1    1900 2400
	1    0    0    -1  
$EndComp
Wire Wire Line
	1550 4850 1600 4850
Wire Wire Line
	1600 4850 1650 4850
Connection ~ 1600 4850
Wire Wire Line
	1700 4850 1650 4850
Connection ~ 1650 4850
$Comp
L power:GND #PWR0110
U 1 1 5F6609FF
P 1650 4900
F 0 "#PWR0110" H 1650 4650 50  0001 C CNN
F 1 "GND" H 1655 4727 50  0000 C CNN
F 2 "" H 1650 4900 50  0001 C CNN
F 3 "" H 1650 4900 50  0001 C CNN
	1    1650 4900
	1    0    0    -1  
$EndComp
Wire Wire Line
	1650 4900 1650 4850
$Comp
L Connector_Generic:Conn_01x03 J30
U 1 1 5F665822
P 7200 3550
F 0 "J30" H 7280 3592 50  0000 L CNN
F 1 "Conn_01x03" H 7280 3501 50  0000 L CNN
F 2 "Connector:FanPinHeader_1x03_P2.54mm_Vertical" H 7200 3550 50  0001 C CNN
F 3 "~" H 7200 3550 50  0001 C CNN
	1    7200 3550
	1    0    0    -1  
$EndComp
Wire Wire Line
	6250 2900 7000 2900
Wire Wire Line
	7000 2900 7000 3450
Connection ~ 6250 2900
Wire Wire Line
	7000 3650 7000 3800
Wire Wire Line
	7000 3800 6250 3800
Connection ~ 6250 3800
Wire Wire Line
	7000 3550 6800 3550
$Comp
L power:GND #PWR0111
U 1 1 5F667C48
P 6800 3550
F 0 "#PWR0111" H 6800 3300 50  0001 C CNN
F 1 "GND" H 6805 3377 50  0000 C CNN
F 2 "" H 6800 3550 50  0001 C CNN
F 3 "" H 6800 3550 50  0001 C CNN
	1    6800 3550
	1    0    0    -1  
$EndComp
Connection ~ 4700 3800
Wire Wire Line
	2000 2100 2150 2100
Wire Wire Line
	2150 2100 2150 3800
Connection ~ 2150 2100
Wire Wire Line
	2150 2100 3150 2100
Wire Wire Line
	3150 2900 3150 3800
Connection ~ 3150 3800
Wire Wire Line
	3150 3800 2950 3800
Wire Wire Line
	3150 3800 4700 3800
$EndSCHEMATC
