(export (version D)
  (design
    (source /home/nop/Radioamateur/git/module_rf/Directional_Coupler/Stockton_bridge/pcb/Stockton_bridge/Stockton_bridge.sch)
    (date "mer. 18 août 2021 21:28:00")
    (tool "Eeschema 5.1.10")
    (sheet (number 1) (name /) (tstamps /)
      (title_block
        (title)
        (company)
        (rev)
        (date)
        (source Stockton_bridge.sch)
        (comment (number 1) (value ""))
        (comment (number 2) (value ""))
        (comment (number 3) (value ""))
        (comment (number 4) (value "")))))
  (components
    (comp (ref J10)
      (value SMA)
      (footprint lib_kicad:SMA)
      (libsource (lib sma) (part SMA) (description ""))
      (sheetpath (names /) (tstamps /))
      (tstamp 5F5FCB5A))
    (comp (ref J20)
      (value SMA)
      (footprint lib_kicad:SMA)
      (libsource (lib sma) (part SMA) (description ""))
      (sheetpath (names /) (tstamps /))
      (tstamp 5F5FD34D))
    (comp (ref R10)
      (value 50R)
      (footprint Resistor_SMD:R_0603_1608Metric_Pad1.05x0.95mm_HandSolder)
      (datasheet ~)
      (libsource (lib Device) (part R) (description Resistor))
      (sheetpath (names /) (tstamps /))
      (tstamp 5F5FD856))
    (comp (ref R11)
      (value 220k)
      (footprint Resistor_SMD:R_0603_1608Metric_Pad1.05x0.95mm_HandSolder)
      (datasheet ~)
      (libsource (lib Device) (part R) (description Resistor))
      (sheetpath (names /) (tstamps /))
      (tstamp 5F5FF160))
    (comp (ref R20)
      (value 50R)
      (footprint Resistor_SMD:R_0603_1608Metric_Pad1.05x0.95mm_HandSolder)
      (datasheet ~)
      (libsource (lib Device) (part R) (description Resistor))
      (sheetpath (names /) (tstamps /))
      (tstamp 5F5FF36E))
    (comp (ref R21)
      (value 220k)
      (footprint Resistor_SMD:R_0603_1608Metric_Pad1.05x0.95mm_HandSolder)
      (datasheet ~)
      (libsource (lib Device) (part R) (description Resistor))
      (sheetpath (names /) (tstamps /))
      (tstamp 5F5FF6E7))
    (comp (ref D10)
      (value D)
      (footprint Diode_SMD:D_SOD-323_HandSoldering)
      (datasheet ~)
      (libsource (lib Device) (part D) (description Diode))
      (sheetpath (names /) (tstamps /))
      (tstamp 5F600124))
    (comp (ref D20)
      (value D)
      (footprint Diode_SMD:D_SOD-323_HandSoldering)
      (datasheet ~)
      (libsource (lib Device) (part D) (description Diode))
      (sheetpath (names /) (tstamps /))
      (tstamp 5F6007F3))
    (comp (ref C10)
      (value 0.1u)
      (footprint Capacitor_SMD:C_0603_1608Metric_Pad1.05x0.95mm_HandSolder)
      (datasheet ~)
      (libsource (lib Device) (part C) (description "Unpolarized capacitor"))
      (sheetpath (names /) (tstamps /))
      (tstamp 5F602F2D))
    (comp (ref C20)
      (value 0.1u)
      (footprint Capacitor_SMD:C_0603_1608Metric_Pad1.05x0.95mm_HandSolder)
      (datasheet ~)
      (libsource (lib Device) (part C) (description "Unpolarized capacitor"))
      (sheetpath (names /) (tstamps /))
      (tstamp 5F6143D8))
    (comp (ref T10)
      (value Transformer_1OP_1S)
      (footprint Transformer_THT:Transformer_Toroid_Horizontal_D10.5mm_Amidon-T37)
      (datasheet ~)
      (libsource (lib Device) (part Transformer_1P_1S) (description "Transformer, single primary, single secondary"))
      (sheetpath (names /) (tstamps /))
      (tstamp 5F61DECB))
    (comp (ref T20)
      (value Transformer_1P_10S)
      (footprint Transformer_THT:Transformer_Toroid_Horizontal_D10.5mm_Amidon-T37)
      (datasheet ~)
      (libsource (lib Device) (part Transformer_1P_1S) (description "Transformer, single primary, single secondary"))
      (sheetpath (names /) (tstamps /))
      (tstamp 5F61EC1B))
    (comp (ref J30)
      (value Conn_01x03)
      (footprint Connector:FanPinHeader_1x03_P2.54mm_Vertical)
      (datasheet ~)
      (libsource (lib Connector_Generic) (part Conn_01x03) (description "Generic connector, single row, 01x03, script generated (kicad-library-utils/schlib/autogen/connector/)"))
      (sheetpath (names /) (tstamps /))
      (tstamp 5F665822)))
  (libparts
    (libpart (lib Connector_Generic) (part Conn_01x03)
      (description "Generic connector, single row, 01x03, script generated (kicad-library-utils/schlib/autogen/connector/)")
      (docs ~)
      (footprints
        (fp Connector*:*_1x??_*))
      (fields
        (field (name Reference) J)
        (field (name Value) Conn_01x03))
      (pins
        (pin (num 1) (name Pin_1) (type passive))
        (pin (num 2) (name Pin_2) (type passive))
        (pin (num 3) (name Pin_3) (type passive))))
    (libpart (lib Device) (part C)
      (description "Unpolarized capacitor")
      (docs ~)
      (footprints
        (fp C_*))
      (fields
        (field (name Reference) C)
        (field (name Value) C))
      (pins
        (pin (num 1) (name ~) (type passive))
        (pin (num 2) (name ~) (type passive))))
    (libpart (lib Device) (part D)
      (description Diode)
      (docs ~)
      (footprints
        (fp TO-???*)
        (fp *_Diode_*)
        (fp *SingleDiode*)
        (fp D_*))
      (fields
        (field (name Reference) D)
        (field (name Value) D))
      (pins
        (pin (num 1) (name K) (type passive))
        (pin (num 2) (name A) (type passive))))
    (libpart (lib Device) (part R)
      (description Resistor)
      (docs ~)
      (footprints
        (fp R_*))
      (fields
        (field (name Reference) R)
        (field (name Value) R))
      (pins
        (pin (num 1) (name ~) (type passive))
        (pin (num 2) (name ~) (type passive))))
    (libpart (lib Device) (part Transformer_1P_1S)
      (description "Transformer, single primary, single secondary")
      (docs ~)
      (fields
        (field (name Reference) T)
        (field (name Value) Transformer_1P_1S))
      (pins
        (pin (num 1) (name AA) (type passive))
        (pin (num 2) (name AB) (type passive))
        (pin (num 3) (name SA) (type passive))
        (pin (num 4) (name SB) (type passive))))
    (libpart (lib sma) (part SMA)
      (fields
        (field (name Reference) J)
        (field (name Value) SMA)
        (field (name Footprint) SMA))
      (pins
        (pin (num 1) (name RF) (type power_in))
        (pin (num 2) (name GND1) (type power_in))
        (pin (num 3) (name GND2) (type power_in))
        (pin (num 4) (name GND3) (type power_in))
        (pin (num 5) (name GND4) (type power_in)))))
  (libraries
    (library (logical Connector_Generic)
      (uri /usr/share/kicad/library/Connector_Generic.lib))
    (library (logical Device)
      (uri /usr/share/kicad/library/Device.lib))
    (library (logical sma)
      (uri /home/nop/Radioamateur/git/Librairie_Kicad/Librairie_Kicad/lib_kicad/SMA/sma.lib)))
  (nets
    (net (code 1) (name "Net-(J20-Pad1)")
      (node (ref J20) (pin 1))
      (node (ref T20) (pin 2)))
    (net (code 2) (name GND)
      (node (ref R11) (pin 2))
      (node (ref J20) (pin 2))
      (node (ref J20) (pin 3))
      (node (ref J20) (pin 4))
      (node (ref J20) (pin 5))
      (node (ref R10) (pin 2))
      (node (ref J10) (pin 5))
      (node (ref R20) (pin 2))
      (node (ref R21) (pin 2))
      (node (ref J30) (pin 2))
      (node (ref C10) (pin 2))
      (node (ref C20) (pin 2))
      (node (ref T10) (pin 1))
      (node (ref J10) (pin 2))
      (node (ref J10) (pin 3))
      (node (ref J10) (pin 4))
      (node (ref T20) (pin 3)))
    (net (code 3) (name "Net-(D10-Pad2)")
      (node (ref R10) (pin 1))
      (node (ref T10) (pin 4))
      (node (ref D10) (pin 2)))
    (net (code 4) (name "Net-(C20-Pad1)")
      (node (ref R21) (pin 1))
      (node (ref C20) (pin 1))
      (node (ref D20) (pin 1))
      (node (ref J30) (pin 3)))
    (net (code 5) (name "Net-(D20-Pad2)")
      (node (ref T20) (pin 4))
      (node (ref T10) (pin 3))
      (node (ref D20) (pin 2))
      (node (ref R20) (pin 1)))
    (net (code 6) (name "Net-(J10-Pad1)")
      (node (ref T20) (pin 1))
      (node (ref J10) (pin 1))
      (node (ref T10) (pin 2)))
    (net (code 7) (name "Net-(C10-Pad1)")
      (node (ref J30) (pin 1))
      (node (ref C10) (pin 1))
      (node (ref R11) (pin 1))
      (node (ref D10) (pin 1)))))