<?xml version="1.0" standalone="no"?>
 <!DOCTYPE svg PUBLIC "-//W3C//DTD SVG 1.1//EN" 
 "http://www.w3.org/Graphics/SVG/1.1/DTD/svg11.dtd"> 
<svg
  xmlns:svg="http://www.w3.org/2000/svg"
  xmlns="http://www.w3.org/2000/svg"
  xmlns:xlink="http://www.w3.org/1999/xlink"
  version="1.1"
  width="29.700220cm" height="21.000720cm" viewBox="0 0 116930 82680">
<title>SVG Picture created as Tamdem_match-F_Cu.svg date 2021/09/13 23:31:12 </title>
  <desc>Picture generated by PCBNEW </desc>
<g style="fill:#000000; fill-opacity:1;stroke:#000000; stroke-opacity:1;
stroke-linecap:round; stroke-linejoin:round;"
 transform="translate(0 0) scale(1 1)">
</g>
<g style="fill:#000000; fill-opacity:0.0; 
stroke:#000000; stroke-width:-0.000393701; stroke-opacity:1; 
stroke-linecap:round; stroke-linejoin:round;">
</g>
<g style="fill:#000000; fill-opacity:0.0; 
stroke:#000000; stroke-width:118.11; stroke-opacity:1; 
stroke-linecap:round; stroke-linejoin:round;">
<text x="36417.3" y="28838.6"
textLength="4205.57" font-size="787.402" lengthAdjust="spacingAndGlyphs"
text-anchor="middle" opacity="0">Relfechie</text>
<path d="M34856 28810
L34659 28529
" />
<path d="M34519 28810
L34519 28219
L34744 28219
L34800 28248
L34828 28276
L34856 28332
L34856 28416
L34828 28473
L34800 28501
L34744 28529
L34519 28529
" />
<path d="M35334 28782
L35278 28810
L35165 28810
L35109 28782
L35081 28726
L35081 28501
L35109 28444
L35165 28416
L35278 28416
L35334 28444
L35362 28501
L35362 28557
L35081 28613
" />
<path d="M35700 28810
L35643 28782
L35615 28726
L35615 28219
" />
<path d="M35840 28416
L36065 28416
" />
<path d="M35925 28810
L35925 28304
L35953 28248
L36009 28219
L36065 28219
" />
<path d="M36487 28782
L36431 28810
L36318 28810
L36262 28782
L36234 28726
L36234 28501
L36262 28444
L36318 28416
L36431 28416
L36487 28444
L36515 28501
L36515 28557
L36234 28613
" />
<path d="M37021 28782
L36965 28810
L36853 28810
L36796 28782
L36768 28754
L36740 28697
L36740 28529
L36768 28473
L36796 28444
L36853 28416
L36965 28416
L37021 28444
" />
<path d="M37275 28810
L37275 28219
" />
<path d="M37528 28810
L37528 28501
L37500 28444
L37443 28416
L37359 28416
L37303 28444
L37275 28473
" />
<path d="M37809 28810
L37809 28416
" />
<path d="M37809 28219
L37781 28248
L37809 28276
L37837 28248
L37809 28219
L37809 28276
" />
<path d="M38315 28782
L38259 28810
L38146 28810
L38090 28782
L38062 28726
L38062 28501
L38090 28444
L38146 28416
L38259 28416
L38315 28444
L38343 28501
L38343 28557
L38062 28613
" />
<text x="62204.7" y="28838.6"
textLength="2740.72" font-size="787.402" lengthAdjust="spacingAndGlyphs"
text-anchor="middle" opacity="0">Direct</text>
<path d="M61051 28810
L61051 28219
L61192 28219
L61276 28248
L61332 28304
L61361 28360
L61389 28473
L61389 28557
L61361 28669
L61332 28726
L61276 28782
L61192 28810
L61051 28810
" />
<path d="M61642 28810
L61642 28416
" />
<path d="M61642 28219
L61614 28248
L61642 28276
L61670 28248
L61642 28219
L61642 28276
" />
<path d="M61923 28810
L61923 28416
" />
<path d="M61923 28529
L61951 28473
L61979 28444
L62035 28416
L62092 28416
" />
<path d="M62514 28782
L62457 28810
L62345 28810
L62289 28782
L62260 28726
L62260 28501
L62289 28444
L62345 28416
L62457 28416
L62514 28444
L62542 28501
L62542 28557
L62260 28613
" />
<path d="M63048 28782
L62992 28810
L62879 28810
L62823 28782
L62795 28754
L62767 28697
L62767 28529
L62795 28473
L62823 28444
L62879 28416
L62992 28416
L63048 28444
" />
<path d="M63217 28416
L63442 28416
" />
<path d="M63301 28219
L63301 28726
L63329 28782
L63385 28810
L63442 28810
" />
<text x="62204.7" y="16633.9"
textLength="2740.72" font-size="787.402" lengthAdjust="spacingAndGlyphs"
text-anchor="middle" opacity="0">Sortie</text>
<path d="M61023 16577
L61107 16605
L61248 16605
L61304 16577
L61332 16549
L61361 16493
L61361 16437
L61332 16380
L61304 16352
L61248 16324
L61136 16296
L61079 16268
L61051 16240
L61023 16183
L61023 16127
L61051 16071
L61079 16043
L61136 16015
L61276 16015
L61361 16043
" />
<path d="M61698 16605
L61642 16577
L61614 16549
L61586 16493
L61586 16324
L61614 16268
L61642 16240
L61698 16212
L61782 16212
L61839 16240
L61867 16268
L61895 16324
L61895 16493
L61867 16549
L61839 16577
L61782 16605
L61698 16605
" />
<path d="M62148 16605
L62148 16212
" />
<path d="M62148 16324
L62176 16268
L62204 16240
L62260 16212
L62317 16212
" />
<path d="M62429 16212
L62654 16212
" />
<path d="M62514 16015
L62514 16521
L62542 16577
L62598 16605
L62654 16605
" />
<path d="M62851 16605
L62851 16212
" />
<path d="M62851 16015
L62823 16043
L62851 16071
L62879 16043
L62851 16015
L62851 16071
" />
<path d="M63357 16577
L63301 16605
L63188 16605
L63132 16577
L63104 16521
L63104 16296
L63132 16240
L63188 16212
L63301 16212
L63357 16240
L63385 16296
L63385 16352
L63104 16408
" />
<text x="35826.8" y="16830.7"
textLength="2937.57" font-size="787.402" lengthAdjust="spacingAndGlyphs"
text-anchor="middle" opacity="0">Entree</text>
<path d="M34575 16493
L34772 16493
" />
<path d="M34856 16802
L34575 16802
L34575 16212
L34856 16212
" />
<path d="M35109 16408
L35109 16802
" />
<path d="M35109 16465
L35137 16437
L35194 16408
L35278 16408
L35334 16437
L35362 16493
L35362 16802
" />
<path d="M35559 16408
L35784 16408
" />
<path d="M35643 16212
L35643 16718
L35672 16774
L35728 16802
L35784 16802
" />
<path d="M35981 16802
L35981 16408
" />
<path d="M35981 16521
L36009 16465
L36037 16437
L36093 16408
L36150 16408
" />
<path d="M36571 16774
L36515 16802
L36403 16802
L36347 16774
L36318 16718
L36318 16493
L36347 16437
L36403 16408
L36515 16408
L36571 16437
L36600 16493
L36600 16549
L36318 16605
" />
<path d="M37078 16774
L37021 16802
L36909 16802
L36853 16774
L36825 16718
L36825 16493
L36853 16437
L36909 16408
L37021 16408
L37078 16437
L37106 16493
L37106 16549
L36825 16605
" />
</g>
<g style="fill:#000000; fill-opacity:0.0; 
stroke:#000000; stroke-width:98.4252; stroke-opacity:1; 
stroke-linecap:round; stroke-linejoin:round;">
<text x="39763.8" y="35285.4"
textLength="9152.42" font-size="524.934" lengthAdjust="spacingAndGlyphs"
text-anchor="middle" opacity="0">Coupleur HF - Tandem Match</text>
<path d="M35583 35229
L35564 35247
L35508 35266
L35470 35266
L35414 35247
L35376 35210
L35358 35172
L35339 35097
L35339 35041
L35358 34966
L35376 34929
L35414 34891
L35470 34872
L35508 34872
L35564 34891
L35583 34910
" />
<path d="M35808 35266
L35770 35247
L35751 35229
L35733 35191
L35733 35079
L35751 35041
L35770 35022
L35808 35004
L35864 35004
L35901 35022
L35920 35041
L35939 35079
L35939 35191
L35920 35229
L35901 35247
L35864 35266
L35808 35266
" />
<path d="M36276 35004
L36276 35266
" />
<path d="M36107 35004
L36107 35210
L36126 35247
L36164 35266
L36220 35266
L36257 35247
L36276 35229
" />
<path d="M36464 35004
L36464 35397
" />
<path d="M36464 35022
L36501 35004
L36576 35004
L36614 35022
L36632 35041
L36651 35079
L36651 35191
L36632 35229
L36614 35247
L36576 35266
L36501 35266
L36464 35247
" />
<path d="M36876 35266
L36839 35247
L36820 35210
L36820 34872
" />
<path d="M37176 35247
L37139 35266
L37064 35266
L37026 35247
L37007 35210
L37007 35060
L37026 35022
L37064 35004
L37139 35004
L37176 35022
L37195 35060
L37195 35097
L37007 35135
" />
<path d="M37532 35004
L37532 35266
" />
<path d="M37364 35004
L37364 35210
L37382 35247
L37420 35266
L37476 35266
L37514 35247
L37532 35229
" />
<path d="M37720 35266
L37720 35004
" />
<path d="M37720 35079
L37739 35041
L37757 35022
L37795 35004
L37832 35004
" />
<path d="M38263 35266
L38263 34872
" />
<path d="M38263 35060
L38488 35060
" />
<path d="M38488 35266
L38488 34872
" />
<path d="M38807 35060
L38676 35060
" />
<path d="M38676 35266
L38676 34872
L38863 34872
" />
<path d="M39313 35116
L39613 35116
" />
<path d="M40044 34872
L40269 34872
" />
<path d="M40157 35266
L40157 34872
" />
<path d="M40569 35266
L40569 35060
L40551 35022
L40513 35004
L40438 35004
L40401 35022
" />
<path d="M40569 35247
L40532 35266
L40438 35266
L40401 35247
L40382 35210
L40382 35172
L40401 35135
L40438 35116
L40532 35116
L40569 35097
" />
<path d="M40757 35004
L40757 35266
" />
<path d="M40757 35041
L40776 35022
L40813 35004
L40869 35004
L40907 35022
L40926 35060
L40926 35266
" />
<path d="M41282 35266
L41282 34872
" />
<path d="M41282 35247
L41244 35266
L41169 35266
L41132 35247
L41113 35229
L41094 35191
L41094 35079
L41113 35041
L41132 35022
L41169 35004
L41244 35004
L41282 35022
" />
<path d="M41619 35247
L41582 35266
L41507 35266
L41469 35247
L41451 35210
L41451 35060
L41469 35022
L41507 35004
L41582 35004
L41619 35022
L41638 35060
L41638 35097
L41451 35135
" />
<path d="M41807 35266
L41807 35004
" />
<path d="M41807 35041
L41826 35022
L41863 35004
L41919 35004
L41957 35022
L41976 35060
L41976 35266
" />
<path d="M41976 35060
L41994 35022
L42032 35004
L42088 35004
L42125 35022
L42144 35060
L42144 35266
" />
<path d="M42632 35266
L42632 34872
L42763 35154
L42894 34872
L42894 35266
" />
<path d="M43250 35266
L43250 35060
L43232 35022
L43194 35004
L43119 35004
L43082 35022
" />
<path d="M43250 35247
L43213 35266
L43119 35266
L43082 35247
L43063 35210
L43063 35172
L43082 35135
L43119 35116
L43213 35116
L43250 35097
" />
<path d="M43382 35004
L43532 35004
" />
<path d="M43438 34872
L43438 35210
L43457 35247
L43494 35266
L43532 35266
" />
<path d="M43832 35247
L43794 35266
L43719 35266
L43682 35247
L43663 35229
L43644 35191
L43644 35079
L43663 35041
L43682 35022
L43719 35004
L43794 35004
L43832 35022
" />
<path d="M44000 35266
L44000 34872
" />
<path d="M44169 35266
L44169 35060
L44150 35022
L44113 35004
L44056 35004
L44019 35022
L44000 35041
" />
<text x="39763.8" y="35974.4"
textLength="6652.14" font-size="524.934" lengthAdjust="spacingAndGlyphs"
text-anchor="middle" opacity="0">F4HDG - 12-09-21 </text>
<path d="M36726 35749
L36595 35749
" />
<path d="M36595 35955
L36595 35561
L36782 35561
" />
<path d="M37101 35693
L37101 35955
" />
<path d="M37007 35543
L36914 35824
L37157 35824
" />
<path d="M37307 35955
L37307 35561
" />
<path d="M37307 35749
L37532 35749
" />
<path d="M37532 35955
L37532 35561
" />
<path d="M37720 35955
L37720 35561
L37814 35561
L37870 35580
L37907 35618
L37926 35655
L37945 35730
L37945 35786
L37926 35861
L37907 35899
L37870 35936
L37814 35955
L37720 35955
" />
<path d="M38320 35580
L38282 35561
L38226 35561
L38170 35580
L38132 35618
L38113 35655
L38095 35730
L38095 35786
L38113 35861
L38132 35899
L38170 35936
L38226 35955
L38263 35955
L38320 35936
L38338 35918
L38338 35786
L38263 35786
" />
<path d="M38807 35805
L39107 35805
" />
<path d="M39801 35955
L39576 35955
" />
<path d="M39688 35955
L39688 35561
L39651 35618
L39613 35655
L39576 35674
" />
<path d="M39951 35599
L39970 35580
L40007 35561
L40101 35561
L40138 35580
L40157 35599
L40176 35636
L40176 35674
L40157 35730
L39932 35955
L40176 35955
" />
<path d="M40344 35805
L40644 35805
" />
<path d="M40907 35561
L40944 35561
L40982 35580
L41001 35599
L41019 35636
L41038 35711
L41038 35805
L41019 35880
L41001 35918
L40982 35936
L40944 35955
L40907 35955
L40869 35936
L40851 35918
L40832 35880
L40813 35805
L40813 35711
L40832 35636
L40851 35599
L40869 35580
L40907 35561
" />
<path d="M41226 35955
L41301 35955
L41338 35936
L41357 35918
L41394 35861
L41413 35786
L41413 35636
L41394 35599
L41376 35580
L41338 35561
L41263 35561
L41226 35580
L41207 35599
L41188 35636
L41188 35730
L41207 35768
L41226 35786
L41263 35805
L41338 35805
L41376 35786
L41394 35768
L41413 35730
" />
<path d="M41582 35805
L41882 35805
" />
<path d="M42050 35599
L42069 35580
L42107 35561
L42200 35561
L42238 35580
L42257 35599
L42275 35636
L42275 35674
L42257 35730
L42032 35955
L42275 35955
" />
<path d="M42650 35955
L42425 35955
" />
<path d="M42538 35955
L42538 35561
L42500 35618
L42463 35655
L42425 35674
" />
<g >
</g>
<g style="fill:#000000; fill-opacity:0.0; 
stroke:#000000; stroke-width:0; stroke-opacity:1; 
stroke-linecap:round; stroke-linejoin:round;">
</g>
<g style="fill:#000000; fill-opacity:1.0; 
stroke:#000000; stroke-width:0; stroke-opacity:1; 
stroke-linecap:round; stroke-linejoin:round;">
<path style="fill:#000000; fill-opacity:1.0; 
stroke:#000000; stroke-width:0; stroke-opacity:1; 
stroke-linecap:round; stroke-linejoin:round;fill-rule:evenodd;"
d="M 47866.1,29037.4
46291.3,29037.4
46291.3,27462.6
47866.1,27462.6
Z" /> 
<path style="fill:#000000; fill-opacity:1.0; 
stroke:#000000; stroke-width:0; stroke-opacity:1; 
stroke-linecap:round; stroke-linejoin:round;fill-rule:evenodd;"
d="M 47866.1,35336.6
46291.3,35336.6
46291.3,33761.8
47866.1,33761.8
Z" /> 
<path style="fill:#000000; fill-opacity:1.0; 
stroke:#000000; stroke-width:0; stroke-opacity:1; 
stroke-linecap:round; stroke-linejoin:round;fill-rule:evenodd;"
d="M 49803.1,32086.6
48228.3,32086.6
48228.3,30511.8
49803.1,30511.8
Z" /> 
<path style="fill:#000000; fill-opacity:1.0; 
stroke:#000000; stroke-width:0; stroke-opacity:1; 
stroke-linecap:round; stroke-linejoin:round;fill-rule:evenodd;"
d="M 53803.1,32086.6
52228.3,32086.6
52228.3,30511.8
53803.1,30511.8
Z" /> 
</g>
<g >
</g>
<g style="fill:#000000; fill-opacity:1.0; 
stroke:#000000; stroke-width:0; stroke-opacity:1; 
stroke-linecap:round; stroke-linejoin:round;">
<path style="fill:#000000; fill-opacity:1.0; 
stroke:#000000; stroke-width:0; stroke-opacity:1; 
stroke-linecap:round; stroke-linejoin:round;fill-rule:evenodd;"
d="M 52133.9,21356.3
53708.7,21356.3
53708.7,22931.1
52133.9,22931.1
Z" /> 
<path style="fill:#000000; fill-opacity:1.0; 
stroke:#000000; stroke-width:0; stroke-opacity:1; 
stroke-linecap:round; stroke-linejoin:round;fill-rule:evenodd;"
d="M 52133.9,15057.1
53708.7,15057.1
53708.7,16631.9
52133.9,16631.9
Z" /> 
<path style="fill:#000000; fill-opacity:1.0; 
stroke:#000000; stroke-width:0; stroke-opacity:1; 
stroke-linecap:round; stroke-linejoin:round;fill-rule:evenodd;"
d="M 50196.9,18307.1
51771.7,18307.1
51771.7,19881.9
50196.9,19881.9
Z" /> 
<path style="fill:#000000; fill-opacity:1.0; 
stroke:#000000; stroke-width:0; stroke-opacity:1; 
stroke-linecap:round; stroke-linejoin:round;fill-rule:evenodd;"
d="M 46196.9,18307.1
47771.7,18307.1
47771.7,19881.9
46196.9,19881.9
Z" /> 
</g>
<g >
</g>
<g style="fill:#000000; fill-opacity:1.0; 
stroke:#000000; stroke-width:0; stroke-opacity:1; 
stroke-linecap:round; stroke-linejoin:round;">
<path style="fill:#000000; fill-opacity:1.0; 
stroke:#000000; stroke-width:0; stroke-opacity:1; 
stroke-linecap:round; stroke-linejoin:round;fill-rule:evenodd;"
d="M 34239.4,21063
34239.4,19881.9
35814.2,19881.9
35814.2,21063
Z" /> 
<path style="fill:#000000; fill-opacity:1.0; 
stroke:#000000; stroke-width:0; stroke-opacity:1; 
stroke-linecap:round; stroke-linejoin:round;fill-rule:evenodd;"
d="M 34239.4,18307.1
34239.4,17126
35814.2,17126
35814.2,18307.1
Z" /> 
<path style="fill:#000000; fill-opacity:1.0; 
stroke:#000000; stroke-width:0; stroke-opacity:1; 
stroke-linecap:round; stroke-linejoin:round;fill-rule:evenodd;"
d="M 34252,19291.3
34252,18897.6
35826.8,18897.6
35826.8,19291.3
Z" /> 
</g>
<g >
</g>
<g style="fill:#000000; fill-opacity:1.0; 
stroke:#000000; stroke-width:0; stroke-opacity:1; 
stroke-linecap:round; stroke-linejoin:round;">
<path style="fill:#000000; fill-opacity:1.0; 
stroke:#000000; stroke-width:0; stroke-opacity:1; 
stroke-linecap:round; stroke-linejoin:round;fill-rule:evenodd;"
d="M 63779.5,29330.7
63779.5,30511.8
62204.7,30511.8
62204.7,29330.7
Z" /> 
<path style="fill:#000000; fill-opacity:1.0; 
stroke:#000000; stroke-width:0; stroke-opacity:1; 
stroke-linecap:round; stroke-linejoin:round;fill-rule:evenodd;"
d="M 63779.5,32086.6
63779.5,33267.7
62204.7,33267.7
62204.7,32086.6
Z" /> 
<path style="fill:#000000; fill-opacity:1.0; 
stroke:#000000; stroke-width:0; stroke-opacity:1; 
stroke-linecap:round; stroke-linejoin:round;fill-rule:evenodd;"
d="M 63766.9,31102.4
63766.9,31496.1
62192.1,31496.1
62192.1,31102.4
Z" /> 
</g>
<g >
</g>
<g style="fill:#000000; fill-opacity:1.0; 
stroke:#000000; stroke-width:0; stroke-opacity:1; 
stroke-linecap:round; stroke-linejoin:round;">
<path style="fill:#000000; fill-opacity:1.0; 
stroke:#000000; stroke-width:0; stroke-opacity:1; 
stroke-linecap:round; stroke-linejoin:round;fill-rule:evenodd;"
d="M 34239.4,33267.7
34239.4,32086.6
35814.2,32086.6
35814.2,33267.7
Z" /> 
<path style="fill:#000000; fill-opacity:1.0; 
stroke:#000000; stroke-width:0; stroke-opacity:1; 
stroke-linecap:round; stroke-linejoin:round;fill-rule:evenodd;"
d="M 34239.4,30511.8
34239.4,29330.7
35814.2,29330.7
35814.2,30511.8
Z" /> 
<path style="fill:#000000; fill-opacity:1.0; 
stroke:#000000; stroke-width:0; stroke-opacity:1; 
stroke-linecap:round; stroke-linejoin:round;fill-rule:evenodd;"
d="M 34252,31496.1
34252,31102.4
35826.8,31102.4
35826.8,31496.1
Z" /> 
</g>
<g >
</g>
<g style="fill:#000000; fill-opacity:1.0; 
stroke:#000000; stroke-width:0; stroke-opacity:1; 
stroke-linecap:round; stroke-linejoin:round;">
<path style="fill:#000000; fill-opacity:1.0; 
stroke:#000000; stroke-width:0; stroke-opacity:1; 
stroke-linecap:round; stroke-linejoin:round;fill-rule:evenodd;"
d="M 63792.1,17126
63792.1,18307.1
62217.3,18307.1
62217.3,17126
Z" /> 
<path style="fill:#000000; fill-opacity:1.0; 
stroke:#000000; stroke-width:0; stroke-opacity:1; 
stroke-linecap:round; stroke-linejoin:round;fill-rule:evenodd;"
d="M 63792.1,19881.9
63792.1,21063
62217.3,21063
62217.3,19881.9
Z" /> 
<path style="fill:#000000; fill-opacity:1.0; 
stroke:#000000; stroke-width:0; stroke-opacity:1; 
stroke-linecap:round; stroke-linejoin:round;fill-rule:evenodd;"
d="M 63779.5,18897.6
63779.5,19291.3
62204.7,19291.3
62204.7,18897.6
Z" /> 
</g>
<g >
</g>
<g >
</g>
<g style="fill:#000000; fill-opacity:1.0; 
stroke:#000000; stroke-width:0; stroke-opacity:1; 
stroke-linecap:round; stroke-linejoin:round;">
</g>
<g style="fill:#000000; fill-opacity:1.0; 
stroke:#000000; stroke-width:787.402; stroke-opacity:1; 
stroke-linecap:round; stroke-linejoin:round;">
</g>
<g style="fill:#000000; fill-opacity:0.0; 
stroke:#000000; stroke-width:787.402; stroke-opacity:1; 
stroke-linecap:round; stroke-linejoin:round;">
<path d="M46984 19094
L35049 19094
" />
<path d="M50984 19094
L62982 19094
" />
<path d="M47078 28250
L47078 23000
" />
<path d="M47078 23000
L50984 19094
" />
<path d="M52921 31204
L53015 31299
" />
<path d="M52921 22143
L52921 31204
" />
<path d="M53015 31299
L62979 31299
" />
<path d="M49015 31299
L35049 31299
" />
</g>
<g >
</g>
<g style="fill:#000000; fill-opacity:0.0; 
stroke:#000000; stroke-width:787.402; stroke-opacity:1; 
stroke-linecap:round; stroke-linejoin:round;">
<g >
</g>
<g style="fill:#000000; fill-opacity:1.0; 
stroke:#000000; stroke-width:100; stroke-opacity:1; 
stroke-linecap:round; stroke-linejoin:round;">
<path style="fill:#000000; fill-opacity:1.0; 
stroke:#000000; stroke-width:100; stroke-opacity:1; 
stroke-linecap:round; stroke-linejoin:round;fill-rule:evenodd;"
d="M 63519.7,15440.2
60408.4,15440.2
60408.4,17331.5
63519.7,17331.5
63519.7,18451.8
63519.2,18451.8
63449.8,18394.8
63304.3,18317.1
63146.4,18269.2
63023.4,18257.1
52212.6,18257.1
52208.9,18220.1
52183.6,18136.5
52142.4,18059.4
52086.9,17991.8
52019.4,17936.4
51942.3,17895.2
51858.6,17869.8
51771.7,17861.2
50196.9,17861.2
50109.9,17869.8
50026.2,17895.2
49949.2,17936.4
49881.6,17991.8
49826.1,18059.4
49784.9,18136.5
49759.6,18220.1
49751,18307.1
49751,19143.5
46515.7,22378.8
46483.7,22405
46457.5,22437
46379.1,22532.5
46301.3,22678
46253.5,22835.8
46237.3,23000
46241.3,23041.1
46241.3,27021.7
46204.4,27025.3
46120.7,27050.7
46043.6,27091.9
45976.1,27147.3
45920.6,27214.9
45879.4,27292
45854.1,27375.6
45845.5,27462.6
45845.5,29037.4
45854.1,29124.4
45879.4,29208
45920.6,29285.1
45976.1,29352.7
46043.6,29408.1
46120.7,29449.3
46204.4,29474.7
46291.3,29483.2
47866.1,29483.2
47953.1,29474.7
48036.8,29449.3
48113.8,29408.1
48181.4,29352.7
48236.9,29285.1
48278.1,29208
48303.4,29124.4
48312,29037.4
48312,28295.5
48317,28297.1
48326.8,28298
48720.5,28298
48730.2,28297.1
48739.6,28294.2
48748.3,28289.6
48755.8,28283.4
48762,28275.8
48766.7,28267.2
48769.5,28257.8
48770.5,28248
48770.5,27854.3
48769.5,27844.6
48766.7,27835.2
48762,27826.6
48755.8,27819
48748.3,27812.8
48739.6,27808.1
48730.2,27805.3
48720.5,27804.3
48326.8,27804.3
48317,27805.3
48312,27806.8
48312,27462.6
48303.4,27375.6
48278.1,27292
48236.9,27214.9
48181.4,27147.3
48113.8,27091.9
48036.8,27050.7
47953.1,27025.3
47916.1,27021.7
47916.1,23346.9
50935.3,20327.7
51771.7,20327.7
51858.6,20319.2
51942.3,20293.8
52019.4,20252.6
52086.9,20197.2
52142.4,20129.6
52183.6,20052.5
52208.9,19968.9
52212.6,19931.9
63023.4,19931.9
63146.4,19919.8
63304.3,19871.9
63449.8,19794.1
63519.2,19737.2
63519.7,19737.2
63519.7,27644.9
60408.4,27644.9
60408.4,29536.2
63519.7,29536.2
63519.7,30656.5
63516.4,30656.5
63447,30599.6
63301.5,30521.8
63143.7,30473.9
63020.7,30461.8
54244.1,30461.8
54240.4,30424.8
54215.1,30341.2
54173.9,30264.1
54118.4,30196.5
54050.8,30141.1
53973.8,30099.9
53890.1,30074.5
53803.1,30066
53758.7,30066
53758.7,23372
53795.6,23368.4
53879.3,23343
53956.4,23301.8
54023.9,23246.4
54079.4,23178.8
54120.6,23101.7
54145.9,23018.1
54154.5,22931.1
54154.5,21356.3
54145.9,21269.3
54120.6,21185.7
54079.4,21108.6
54023.9,21041
53956.4,20985.6
53879.3,20944.4
53795.6,20919
53708.7,20910.5
52133.9,20910.5
52046.9,20919
51963.2,20944.4
51886.2,20985.6
51818.6,21041
51763.1,21108.6
51721.9,21185.7
51696.6,21269.3
51688,21356.3
51688,22098.2
51683,22096.6
51673.2,22095.7
51279.5,22095.7
51269.8,22096.6
51260.4,22099.5
51251.7,22104.1
51244.2,22110.3
51238,22117.9
51233.3,22126.5
51230.5,22135.9
51229.5,22145.7
51229.5,22539.4
51230.5,22549.1
51233.3,22558.5
51238,22567.1
51244.2,22574.7
51251.7,22580.9
51260.4,22585.6
51269.8,22588.4
51279.5,22589.4
51673.2,22589.4
51683,22588.4
51688,22586.9
51688,22931.1
51696.6,23018.1
51721.9,23101.7
51763.1,23178.8
51818.6,23246.4
51886.2,23301.8
51963.2,23343
52046.9,23368.4
52083.9,23372
52083.9,30092
52057.7,30099.9
51980.6,30141.1
51913.1,30196.5
51857.6,30264.1
51816.4,30341.2
51791.1,30424.8
51782.5,30511.8
51782.5,32086.6
51791.1,32173.6
51816.4,32257.2
51857.6,32334.3
51913.1,32401.9
51980.6,32457.3
52057.7,32498.5
52141.4,32523.9
52228.3,32532.5
52343.3,32532.5
52343.1,32532.5
52334.4,32537.2
52326.8,32543.4
52320.6,32551
52316,32559.6
52313.2,32569
52312.2,32578.7
52312.2,32972.4
52313.2,32982.2
52316,32991.6
52320.6,33000.2
52326.8,33007.8
52334.4,33014
52343.1,33018.6
52352.5,33021.5
52362.2,33022.4
52755.9,33022.4
52765.7,33021.5
52775,33018.6
52783.7,33014
52791.3,33007.8
52797.5,33000.2
52802.1,32991.6
52804.9,32982.2
52805.9,32972.4
52805.9,32578.7
52804.9,32569
52802.1,32559.6
52797.5,32551
52791.3,32543.4
52783.7,32537.2
52775,32532.5
52774.8,32532.5
53803.1,32532.5
53890.1,32523.9
53973.8,32498.5
54050.8,32457.3
54118.4,32401.9
54173.9,32334.3
54215.1,32257.2
54240.4,32173.6
54244.1,32136.6
63020.7,32136.6
63143.7,32124.5
63301.5,32076.6
63447,31998.9
63516.4,31941.9
63519.7,31941.9
63519.7,37338.6
34511.8,37338.6
34511.8,34336.8
34771.4,34336.8
34771.4,36602.2
44756.1,36602.2
44756.1,34336.8
34771.4,34336.8
34511.8,34336.8
34511.8,31941.9
34512.3,31941.9
34581.7,31998.9
34727.2,32076.6
34885.1,32124.5
35008.1,32136.6
47787.4,32136.6
47791.1,32173.6
47816.4,32257.2
47857.6,32334.3
47913.1,32401.9
47980.6,32457.3
48057.7,32498.5
48141.4,32523.9
48228.3,32532.5
49803.1,32532.5
49890.1,32523.9
49973.8,32498.5
50050.8,32457.3
50118.4,32401.9
50173.9,32334.3
50215.1,32257.2
50240.4,32173.6
50249,32086.6
50249,30511.8
50240.4,30424.8
50215.1,30341.2
50173.9,30264.1
50118.4,30196.5
50050.8,30141.1
49973.8,30099.9
49890.1,30074.5
49803.1,30066
48228.3,30066
48141.4,30074.5
48057.7,30099.9
47980.6,30141.1
47913.1,30196.5
47857.6,30264.1
47816.4,30341.2
47791.1,30424.8
47787.4,30461.8
35008.1,30461.8
34885.1,30473.9
34727.2,30521.8
34581.7,30599.6
34512.3,30656.5
34511.8,30656.5
34511.8,29536.2
38958.9,29536.2
38958.9,27644.9
34511.8,27644.9
34511.8,19737.2
34512.3,19737.2
34581.7,19794.1
34727.2,19871.9
34885.1,19919.8
35008.1,19931.9
45755.9,19931.9
45759.6,19968.9
45784.9,20052.5
45826.1,20129.6
45881.6,20197.2
45949.2,20252.6
46026.2,20293.8
46109.9,20319.2
46196.9,20327.7
47771.7,20327.7
47858.6,20319.2
47942.3,20293.8
48019.4,20252.6
48086.9,20197.2
48142.4,20129.6
48183.6,20052.5
48208.9,19968.9
48217.5,19881.9
48217.5,18307.1
48208.9,18220.1
48183.6,18136.5
48142.4,18059.4
48086.9,17991.8
48019.4,17936.4
47942.3,17895.2
47858.6,17869.8
47771.7,17861.2
47656.7,17861.2
47656.9,17861.2
47665.6,17856.5
47673.2,17850.3
47679.4,17842.7
47684,17834.1
47686.8,17824.7
47687.8,17815
47687.8,17421.3
47686.8,17411.5
47684,17402.1
47679.4,17393.5
47673.2,17385.9
47665.6,17379.7
47656.9,17375.1
47647.5,17372.2
47637.8,17371.3
47244.1,17371.3
47234.3,17372.2
47225,17375.1
47216.3,17379.7
47208.7,17385.9
47202.5,17393.5
47197.9,17402.1
47195.1,17411.5
47194.1,17421.3
47194.1,17815
47195.1,17824.7
47197.9,17834.1
47202.5,17842.7
47208.7,17850.3
47216.3,17856.5
47225,17861.2
47225.2,17861.2
46196.9,17861.2
46109.9,17869.8
46026.2,17895.2
45949.2,17936.4
45881.6,17991.8
45826.1,18059.4
45784.9,18136.5
45759.6,18220.1
45755.9,18257.1
35008.1,18257.1
34885.1,18269.2
34727.2,18317.1
34581.7,18394.8
34512.3,18451.8
34511.8,18451.8
34511.8,17528.3
37721.5,17528.3
37721.5,15637
34511.8,15637
34511.8,13055.1
63519.7,13055.1
Z" /> 
</g>
</g>
</g> 
</svg>
