EESchema Schematic File Version 4
EELAYER 30 0
EELAYER END
$Descr A4 11693 8268
encoding utf-8
Sheet 1 1
Title ""
Date ""
Rev ""
Comp ""
Comment1 ""
Comment2 ""
Comment3 ""
Comment4 ""
$EndDescr
$Comp
L sma:SMA J10
U 1 1 5F5FCB5A
P 4350 2500
F 0 "J10" H 4300 3153 60  0000 C CNN
F 1 "SMA" H 4300 3047 60  0000 C CNN
F 2 "lib_kicad:SMA" H 4300 2949 50  0000 C CNN
F 3 "" H 4350 2500 50  0001 C CNN
	1    4350 2500
	-1   0    0    -1  
$EndComp
$Comp
L sma:SMA J20
U 1 1 5F5FD34D
P 7650 2500
F 0 "J20" H 7600 3153 60  0000 C CNN
F 1 "SMA" H 7600 3047 60  0000 C CNN
F 2 "lib_kicad:SMA" H 7600 2949 50  0000 C CNN
F 3 "" H 7650 2500 50  0001 C CNN
	1    7650 2500
	1    0    0    -1  
$EndComp
$Comp
L power:GND #PWR0107
U 1 1 5F62C563
P 7150 3600
F 0 "#PWR0107" H 7150 3350 50  0001 C CNN
F 1 "GND" H 7155 3427 50  0000 C CNN
F 2 "" H 7150 3600 50  0001 C CNN
F 3 "" H 7150 3600 50  0001 C CNN
	1    7150 3600
	-1   0    0    1   
$EndComp
$Comp
L power:GND #PWR0108
U 1 1 5F637A1C
P 6050 3000
F 0 "#PWR0108" H 6050 2750 50  0001 C CNN
F 1 "GND" H 6055 2827 50  0000 C CNN
F 2 "" H 6050 3000 50  0001 C CNN
F 3 "" H 6050 3000 50  0001 C CNN
	1    6050 3000
	1    0    0    -1  
$EndComp
Wire Wire Line
	4300 2400 4350 2400
Wire Wire Line
	4350 2400 4400 2400
Connection ~ 4350 2400
Wire Wire Line
	4400 2400 4450 2400
Connection ~ 4400 2400
Wire Wire Line
	4400 2400 4400 2500
$Comp
L power:GND #PWR0109
U 1 1 5F65ED15
P 4400 2500
F 0 "#PWR0109" H 4400 2250 50  0001 C CNN
F 1 "GND" H 4405 2327 50  0000 C CNN
F 2 "" H 4400 2500 50  0001 C CNN
F 3 "" H 4400 2500 50  0001 C CNN
	1    4400 2500
	1    0    0    -1  
$EndComp
Wire Wire Line
	7700 2400 7650 2400
Wire Wire Line
	7650 2400 7600 2400
Connection ~ 7650 2400
Wire Wire Line
	7550 2400 7600 2400
Connection ~ 7600 2400
$Comp
L power:GND #PWR0110
U 1 1 5F6609FF
P 7600 2450
F 0 "#PWR0110" H 7600 2200 50  0001 C CNN
F 1 "GND" H 7605 2277 50  0000 C CNN
F 2 "" H 7600 2450 50  0001 C CNN
F 3 "" H 7600 2450 50  0001 C CNN
	1    7600 2450
	-1   0    0    -1  
$EndComp
Wire Wire Line
	7600 2450 7600 2400
$Comp
L sma:SMA J4
U 1 1 61429509
P 8350 4700
F 0 "J4" H 8300 5353 60  0000 C CNN
F 1 "SMA" H 8300 5247 60  0000 C CNN
F 2 "lib_kicad:SMA" H 8300 5149 50  0000 C CNN
F 3 "" H 8350 4700 50  0001 C CNN
	1    8350 4700
	1    0    0    -1  
$EndComp
Wire Wire Line
	8400 4600 8350 4600
Wire Wire Line
	8350 4600 8300 4600
Connection ~ 8350 4600
Wire Wire Line
	8250 4600 8300 4600
Connection ~ 8300 4600
Wire Wire Line
	8300 4650 8300 4600
Text Notes 4600 1600 0    157  ~ 0
Entree\n
Text Notes 7150 1550 0    157  ~ 0
Sortie
Text Notes 6700 5050 0    157  ~ 0
Reflechie
Text Label 7450 4400 0    50   ~ 0
Reflechie
Wire Wire Line
	4500 2200 5650 2200
Text Label 4800 2200 0    50   ~ 0
Entree
Text Label 6200 2200 0    50   ~ 0
Sortie
Text Label 4600 4400 0    50   ~ 0
Direct
Text Notes 4400 5050 0    157  ~ 0
Direct
Wire Wire Line
	3600 4650 3600 4600
$Comp
L power:GND #PWR0113
U 1 1 6142D499
P 3600 4650
F 0 "#PWR0113" H 3600 4400 50  0001 C CNN
F 1 "GND" H 3605 4477 50  0000 C CNN
F 2 "" H 3600 4650 50  0001 C CNN
F 3 "" H 3600 4650 50  0001 C CNN
	1    3600 4650
	1    0    0    -1  
$EndComp
Connection ~ 3600 4600
Wire Wire Line
	3650 4600 3600 4600
Connection ~ 3550 4600
Wire Wire Line
	3550 4600 3600 4600
Wire Wire Line
	3500 4600 3550 4600
$Comp
L sma:SMA J5
U 1 1 6142D1FE
P 3550 4700
F 0 "J5" H 3500 5353 60  0000 C CNN
F 1 "SMA" H 3500 5247 60  0000 C CNN
F 2 "lib_kicad:SMA" H 3500 5149 50  0000 C CNN
F 3 "" H 3550 4700 50  0001 C CNN
	1    3550 4700
	-1   0    0    -1  
$EndComp
$Comp
L power:GND #PWR0112
U 1 1 6142977A
P 8300 4650
F 0 "#PWR0112" H 8300 4400 50  0001 C CNN
F 1 "GND" H 8305 4477 50  0000 C CNN
F 2 "" H 8300 4650 50  0001 C CNN
F 3 "" H 8300 4650 50  0001 C CNN
	1    8300 4650
	-1   0    0    -1  
$EndComp
Wire Wire Line
	7150 4400 8200 4400
$Comp
L Device:Transformer_1P_1S T20
U 1 1 5F61EC1B
P 5850 2600
F 0 "T20" H 5850 2981 50  0000 C CNN
F 1 "Transformer_1P_10S" H 5850 2890 50  0000 C CNN
F 2 "lib_kicad:Transformer_Toroid_Horizontal_D14.0mm_Amidon-T50" H 5850 2600 50  0001 C CNN
F 3 "~" H 5850 2600 50  0001 C CNN
	1    5850 2600
	0    -1   1    0   
$EndComp
$Comp
L Device:Transformer_1P_1S T10
U 1 1 5F61DECB
P 6950 4000
F 0 "T10" V 6904 4244 50  0000 L CNN
F 1 "Transformer_1OP_1S" V 6995 4244 50  0000 L CNN
F 2 "lib_kicad:Transformer_Toroid_Horizontal_D14.0mm_Amidon-T50" H 6950 4000 50  0001 C CNN
F 3 "~" H 6950 4000 50  0001 C CNN
	1    6950 4000
	0    -1   -1   0   
$EndComp
Wire Wire Line
	3700 4400 5650 4400
Wire Wire Line
	5650 3000 5650 4400
Connection ~ 5650 4400
Wire Wire Line
	5650 4400 6750 4400
Wire Wire Line
	6050 2200 6750 2200
Wire Wire Line
	6750 3600 6750 2200
Connection ~ 6750 2200
Wire Wire Line
	6750 2200 7500 2200
Text Notes 1000 7300 0    157  ~ 0
Schema ARRL Antenna handbook 21th p27-11
$EndSCHEMATC
