EESchema Schematic File Version 4
EELAYER 30 0
EELAYER END
$Descr A4 11693 8268
encoding utf-8
Sheet 1 1
Title ""
Date ""
Rev ""
Comp ""
Comment1 ""
Comment2 ""
Comment3 ""
Comment4 ""
$EndDescr
$Comp
L sma:SMA J10
U 1 1 5F5FCB5A
P 2550 1300
F 0 "J10" H 2500 1953 60  0000 C CNN
F 1 "SMA" H 2500 1847 60  0000 C CNN
F 2 "Connector_Coaxial:SMA_Molex_73251-2200_Horizontal" H 2500 1749 50  0000 C CNN
F 3 "" H 2550 1300 50  0001 C CNN
	1    2550 1300
	-1   0    0    -1  
$EndComp
$Comp
L sma:SMA J20
U 1 1 5F5FD34D
P 5850 1300
F 0 "J20" H 5800 1953 60  0000 C CNN
F 1 "SMA" H 5800 1847 60  0000 C CNN
F 2 "Connector_Coaxial:SMA_Molex_73251-2200_Horizontal" H 5800 1749 50  0000 C CNN
F 3 "" H 5850 1300 50  0001 C CNN
	1    5850 1300
	1    0    0    -1  
$EndComp
$Comp
L Device:R R10
U 1 1 5F5FD856
P 7000 3400
F 0 "R10" H 7070 3446 50  0000 L CNN
F 1 "100R" H 7070 3355 50  0000 L CNN
F 2 "Resistor_SMD:R_0603_1608Metric_Pad0.98x0.95mm_HandSolder" V 6930 3400 50  0001 C CNN
F 3 "~" H 7000 3400 50  0001 C CNN
	1    7000 3400
	1    0    0    -1  
$EndComp
$Comp
L Device:R R12
U 1 1 5F5FF160
P 8550 3400
F 0 "R12" H 8620 3446 50  0000 L CNN
F 1 "220k" H 8620 3355 50  0000 L CNN
F 2 "Resistor_SMD:R_0603_1608Metric_Pad0.98x0.95mm_HandSolder" V 8480 3400 50  0001 C CNN
F 3 "~" H 8550 3400 50  0001 C CNN
	1    8550 3400
	1    0    0    -1  
$EndComp
$Comp
L Device:R R20
U 1 1 5F5FF36E
P 7050 5650
F 0 "R20" H 7120 5696 50  0000 L CNN
F 1 "100R" H 7120 5605 50  0000 L CNN
F 2 "Resistor_SMD:R_0603_1608Metric_Pad0.98x0.95mm_HandSolder" V 6980 5650 50  0001 C CNN
F 3 "~" H 7050 5650 50  0001 C CNN
	1    7050 5650
	1    0    0    -1  
$EndComp
$Comp
L Device:R R22
U 1 1 5F5FF6E7
P 8600 5650
F 0 "R22" H 8670 5696 50  0000 L CNN
F 1 "220k" H 8670 5605 50  0000 L CNN
F 2 "Resistor_SMD:R_0603_1608Metric_Pad0.98x0.95mm_HandSolder" V 8530 5650 50  0001 C CNN
F 3 "~" H 8600 5650 50  0001 C CNN
	1    8600 5650
	1    0    0    -1  
$EndComp
$Comp
L Device:D D10
U 1 1 5F600124
P 7750 3250
F 0 "D10" H 7750 3033 50  0000 C CNN
F 1 "D" H 7750 3124 50  0000 C CNN
F 2 "Diode_SMD:D_SOD-323_HandSoldering" H 7750 3250 50  0001 C CNN
F 3 "~" H 7750 3250 50  0001 C CNN
	1    7750 3250
	-1   0    0    1   
$EndComp
$Comp
L Device:D D20
U 1 1 5F6007F3
P 7700 5500
F 0 "D20" H 7700 5283 50  0000 C CNN
F 1 "D" H 7700 5374 50  0000 C CNN
F 2 "Diode_SMD:D_SOD-323_HandSoldering" H 7700 5500 50  0001 C CNN
F 3 "~" H 7700 5500 50  0001 C CNN
	1    7700 5500
	-1   0    0    1   
$EndComp
Wire Wire Line
	7550 5500 7450 5500
Wire Wire Line
	7000 3250 7400 3250
$Comp
L power:GND #PWR0101
U 1 1 5F601918
P 7000 3550
F 0 "#PWR0101" H 7000 3300 50  0001 C CNN
F 1 "GND" H 7005 3377 50  0000 C CNN
F 2 "" H 7000 3550 50  0001 C CNN
F 3 "" H 7000 3550 50  0001 C CNN
	1    7000 3550
	1    0    0    -1  
$EndComp
$Comp
L power:GND #PWR0102
U 1 1 5F6025B8
P 8550 3550
F 0 "#PWR0102" H 8550 3300 50  0001 C CNN
F 1 "GND" H 8555 3377 50  0000 C CNN
F 2 "" H 8550 3550 50  0001 C CNN
F 3 "" H 8550 3550 50  0001 C CNN
	1    8550 3550
	1    0    0    -1  
$EndComp
$Comp
L power:GND #PWR0103
U 1 1 5F602807
P 8600 5800
F 0 "#PWR0103" H 8600 5550 50  0001 C CNN
F 1 "GND" H 8605 5627 50  0000 C CNN
F 2 "" H 8600 5800 50  0001 C CNN
F 3 "" H 8600 5800 50  0001 C CNN
	1    8600 5800
	1    0    0    -1  
$EndComp
$Comp
L power:GND #PWR0104
U 1 1 5F602B31
P 7050 5800
F 0 "#PWR0104" H 7050 5550 50  0001 C CNN
F 1 "GND" H 7055 5627 50  0000 C CNN
F 2 "" H 7050 5800 50  0001 C CNN
F 3 "" H 7050 5800 50  0001 C CNN
	1    7050 5800
	1    0    0    -1  
$EndComp
$Comp
L Device:C C10
U 1 1 5F602F2D
P 8050 3450
F 0 "C10" H 8165 3496 50  0000 L CNN
F 1 "0.1u" H 8165 3405 50  0000 L CNN
F 2 "Capacitor_SMD:C_0603_1608Metric_Pad1.08x0.95mm_HandSolder" H 8088 3300 50  0001 C CNN
F 3 "~" H 8050 3450 50  0001 C CNN
	1    8050 3450
	1    0    0    -1  
$EndComp
Wire Wire Line
	7900 3250 8050 3250
Connection ~ 8050 3250
Wire Wire Line
	8050 3250 8550 3250
$Comp
L Device:C C20
U 1 1 5F6143D8
P 8100 5700
F 0 "C20" H 8215 5746 50  0000 L CNN
F 1 "0.1u" H 8215 5655 50  0000 L CNN
F 2 "Capacitor_SMD:C_0603_1608Metric_Pad1.08x0.95mm_HandSolder" H 8138 5550 50  0001 C CNN
F 3 "~" H 8100 5700 50  0001 C CNN
	1    8100 5700
	1    0    0    -1  
$EndComp
$Comp
L power:GND #PWR0105
U 1 1 5F61BDAF
P 8100 5850
F 0 "#PWR0105" H 8100 5600 50  0001 C CNN
F 1 "GND" H 8105 5677 50  0000 C CNN
F 2 "" H 8100 5850 50  0001 C CNN
F 3 "" H 8100 5850 50  0001 C CNN
	1    8100 5850
	1    0    0    -1  
$EndComp
Wire Wire Line
	8050 3300 8050 3250
Wire Wire Line
	7850 5500 8100 5500
Wire Wire Line
	8100 5550 8100 5500
Connection ~ 8100 5500
Wire Wire Line
	8100 5500 8600 5500
$Comp
L power:GND #PWR0106
U 1 1 5F61D114
P 8050 3600
F 0 "#PWR0106" H 8050 3350 50  0001 C CNN
F 1 "GND" H 8055 3427 50  0000 C CNN
F 2 "" H 8050 3600 50  0001 C CNN
F 3 "" H 8050 3600 50  0001 C CNN
	1    8050 3600
	1    0    0    -1  
$EndComp
$Comp
L Device:Transformer_1P_1S T10
U 1 1 5F61DECB
P 4050 2750
F 0 "T10" V 4004 2994 50  0000 L CNN
F 1 "Transformer_1OP_1S" V 4095 2994 50  0000 L CNN
F 2 "lib_kicad:Transformer_Toroid_Horizontal_D14.0mm_Amidon-T50" H 4050 2750 50  0001 C CNN
F 3 "~" H 4050 2750 50  0001 C CNN
	1    4050 2750
	0    -1   -1   0   
$EndComp
$Comp
L Device:Transformer_1P_1S T20
U 1 1 5F61EC1B
P 4050 1400
F 0 "T20" H 4050 1781 50  0000 C CNN
F 1 "Transformer_1P_10S" H 4050 1690 50  0000 C CNN
F 2 "lib_kicad:Transformer_Toroid_Horizontal_D14.0mm_Amidon-T50" H 4050 1400 50  0001 C CNN
F 3 "~" H 4050 1400 50  0001 C CNN
	1    4050 1400
	0    -1   1    0   
$EndComp
$Comp
L power:GND #PWR0107
U 1 1 5F62C563
P 3850 2350
F 0 "#PWR0107" H 3850 2100 50  0001 C CNN
F 1 "GND" H 3855 2177 50  0000 C CNN
F 2 "" H 3850 2350 50  0001 C CNN
F 3 "" H 3850 2350 50  0001 C CNN
	1    3850 2350
	-1   0    0    1   
$EndComp
Connection ~ 7000 3250
$Comp
L power:GND #PWR0108
U 1 1 5F637A1C
P 3850 1800
F 0 "#PWR0108" H 3850 1550 50  0001 C CNN
F 1 "GND" H 3855 1627 50  0000 C CNN
F 2 "" H 3850 1800 50  0001 C CNN
F 3 "" H 3850 1800 50  0001 C CNN
	1    3850 1800
	1    0    0    -1  
$EndComp
Wire Wire Line
	2500 1200 2550 1200
Wire Wire Line
	2550 1200 2600 1200
Connection ~ 2550 1200
Wire Wire Line
	2600 1200 2650 1200
Connection ~ 2600 1200
Wire Wire Line
	2600 1200 2600 1300
$Comp
L power:GND #PWR0109
U 1 1 5F65ED15
P 2600 1300
F 0 "#PWR0109" H 2600 1050 50  0001 C CNN
F 1 "GND" H 2605 1127 50  0000 C CNN
F 2 "" H 2600 1300 50  0001 C CNN
F 3 "" H 2600 1300 50  0001 C CNN
	1    2600 1300
	1    0    0    -1  
$EndComp
Wire Wire Line
	5900 1200 5850 1200
Wire Wire Line
	5850 1200 5800 1200
Connection ~ 5850 1200
Wire Wire Line
	5750 1200 5800 1200
Connection ~ 5800 1200
$Comp
L power:GND #PWR0110
U 1 1 5F6609FF
P 5800 1250
F 0 "#PWR0110" H 5800 1000 50  0001 C CNN
F 1 "GND" H 5805 1077 50  0000 C CNN
F 2 "" H 5800 1250 50  0001 C CNN
F 3 "" H 5800 1250 50  0001 C CNN
	1    5800 1250
	-1   0    0    -1  
$EndComp
Wire Wire Line
	5800 1250 5800 1200
Connection ~ 8550 3250
Connection ~ 8600 5500
Wire Wire Line
	9300 4000 9250 4000
$Comp
L power:GND #PWR0111
U 1 1 5F667C48
P 9100 4000
F 0 "#PWR0111" H 9100 3750 50  0001 C CNN
F 1 "GND" H 9105 3827 50  0000 C CNN
F 2 "" H 9100 4000 50  0001 C CNN
F 3 "" H 9100 4000 50  0001 C CNN
	1    9100 4000
	1    0    0    -1  
$EndComp
Wire Wire Line
	4250 1000 4900 1000
Wire Wire Line
	6800 3250 7000 3250
$Comp
L Connector_Generic:Conn_01x01 J1
U 1 1 613D884C
P 10350 3250
F 0 "J1" H 10430 3292 50  0000 L CNN
F 1 "Conn_01x01" H 10430 3201 50  0000 L CNN
F 2 "Connector_Wire:SolderWirePad_1x01_SMD_1x2mm" H 10350 3250 50  0001 C CNN
F 3 "~" H 10350 3250 50  0001 C CNN
	1    10350 3250
	1    0    0    -1  
$EndComp
$Comp
L Connector_Generic:Conn_01x01 J2
U 1 1 613D9CD4
P 9500 4000
F 0 "J2" H 9580 4042 50  0000 L CNN
F 1 "Conn_01x01" H 9580 3951 50  0000 L CNN
F 2 "Connector_Wire:SolderWirePad_1x01_SMD_1x2mm" H 9500 4000 50  0001 C CNN
F 3 "~" H 9500 4000 50  0001 C CNN
	1    9500 4000
	1    0    0    -1  
$EndComp
$Comp
L Connector_Generic:Conn_01x01 J3
U 1 1 613DA1D1
P 10350 5500
F 0 "J3" H 10430 5542 50  0000 L CNN
F 1 "Conn_01x01" H 10430 5451 50  0000 L CNN
F 2 "Connector_Wire:SolderWirePad_1x01_SMD_1x2mm" H 10350 5500 50  0001 C CNN
F 3 "~" H 10350 5500 50  0001 C CNN
	1    10350 5500
	1    0    0    -1  
$EndComp
$Comp
L Switch:SW_DPDT_x2 SW1
U 1 1 613FA25C
P 6600 3150
F 0 "SW1" H 6600 3435 50  0000 C CNN
F 1 "SW_DPDT_x2" H 6600 3344 50  0000 C CNN
F 2 "Button_Switch_THT:SW_PUSH_E-Switch_FS5700DP_DPDT" H 6600 3150 50  0001 C CNN
F 3 "~" H 6600 3150 50  0001 C CNN
	1    6600 3150
	1    0    0    -1  
$EndComp
$Comp
L Switch:SW_DPDT_x2 SW1
U 2 1 614020A2
P 6600 5400
F 0 "SW1" H 6600 5685 50  0000 C CNN
F 1 "SW_DPDT_x2" H 6600 5594 50  0000 C CNN
F 2 "Button_Switch_THT:SW_PUSH_E-Switch_FS5700DP_DPDT" H 6600 5400 50  0001 C CNN
F 3 "~" H 6600 5400 50  0001 C CNN
	2    6600 5400
	1    0    0    -1  
$EndComp
Wire Wire Line
	7050 5500 6800 5500
Connection ~ 7050 5500
$Comp
L sma:SMA J4
U 1 1 61429509
P 9500 2800
F 0 "J4" H 9450 3453 60  0000 C CNN
F 1 "SMA" H 9450 3347 60  0000 C CNN
F 2 "Connector_Coaxial:SMA_Molex_73251-2200_Horizontal" H 9450 3249 50  0000 C CNN
F 3 "" H 9500 2800 50  0001 C CNN
	1    9500 2800
	1    0    0    -1  
$EndComp
Wire Wire Line
	9550 2700 9500 2700
Wire Wire Line
	9500 2700 9450 2700
Connection ~ 9500 2700
Wire Wire Line
	9400 2700 9450 2700
Connection ~ 9450 2700
$Comp
L power:GND #PWR0112
U 1 1 6142977A
P 9450 2750
F 0 "#PWR0112" H 9450 2500 50  0001 C CNN
F 1 "GND" H 9455 2577 50  0000 C CNN
F 2 "" H 9450 2750 50  0001 C CNN
F 3 "" H 9450 2750 50  0001 C CNN
	1    9450 2750
	-1   0    0    -1  
$EndComp
Wire Wire Line
	9450 2750 9450 2700
$Comp
L sma:SMA J5
U 1 1 6142D1FE
P 9600 5100
F 0 "J5" H 9550 5753 60  0000 C CNN
F 1 "SMA" H 9550 5647 60  0000 C CNN
F 2 "Connector_Coaxial:SMA_Molex_73251-2200_Horizontal" H 9550 5549 50  0000 C CNN
F 3 "" H 9600 5100 50  0001 C CNN
	1    9600 5100
	1    0    0    -1  
$EndComp
Wire Wire Line
	9650 5000 9600 5000
Wire Wire Line
	9600 5000 9550 5000
Connection ~ 9600 5000
Wire Wire Line
	9500 5000 9550 5000
Connection ~ 9550 5000
$Comp
L power:GND #PWR0113
U 1 1 6142D499
P 9550 5050
F 0 "#PWR0113" H 9550 4800 50  0001 C CNN
F 1 "GND" H 9555 4877 50  0000 C CNN
F 2 "" H 9550 5050 50  0001 C CNN
F 3 "" H 9550 5050 50  0001 C CNN
	1    9550 5050
	-1   0    0    -1  
$EndComp
Wire Wire Line
	9550 5050 9550 5000
Wire Wire Line
	3850 5400 6400 5400
Wire Wire Line
	3850 3150 3850 3550
Wire Wire Line
	6800 4800 9450 4800
Wire Wire Line
	6800 4800 6800 5300
Wire Wire Line
	6800 2500 9350 2500
Wire Wire Line
	6800 2500 6800 3050
$Comp
L Connector:AudioJack3 J6
U 1 1 6144CEF3
P 10500 3800
F 0 "J6" H 10220 3825 50  0000 R CNN
F 1 "AudioJack3" H 10220 3734 50  0000 R CNN
F 2 "Connector_Audio:Jack_3.5mm_Ledino_KB3SPRS_Horizontal" H 10500 3800 50  0001 C CNN
F 3 "~" H 10500 3800 50  0001 C CNN
	1    10500 3800
	-1   0    0    -1  
$EndComp
Wire Wire Line
	9250 3700 9250 4000
Connection ~ 9250 4000
Wire Wire Line
	9250 4000 9100 4000
Wire Wire Line
	10300 3700 9250 3700
Wire Wire Line
	8550 3250 10000 3250
Wire Wire Line
	8600 5500 10150 5500
Connection ~ 10150 5500
Text Notes 1500 1650 0    157  ~ 0
Entree\n
Text Notes 6350 1350 0    157  ~ 0
Sortie
Text Notes 7300 2400 0    157  ~ 0
Reflechie
Text Notes 7350 4650 0    157  ~ 0
Direct
Text Label 9650 3250 0    50   ~ 0
Reflechie_DC
Text Label 9400 5500 0    50   ~ 0
Direct_DC
Text Label 8600 2500 0    50   ~ 0
Reflechie_SMA
Text Label 8400 4800 0    50   ~ 0
Direct_SMA
Wire Wire Line
	4250 3150 6400 3150
Wire Wire Line
	2700 1000 3850 1000
Wire Wire Line
	4900 2350 4900 1000
Connection ~ 4900 1000
Wire Wire Line
	4900 1000 5700 1000
Wire Wire Line
	4250 1800 4250 2100
Wire Wire Line
	4250 2100 3300 2100
Wire Wire Line
	3300 2100 3300 3550
Wire Wire Line
	3300 3550 3850 3550
Connection ~ 3850 3550
Wire Wire Line
	3850 3550 3850 5400
Wire Wire Line
	10150 3800 10300 3800
Wire Wire Line
	10150 3800 10150 5500
Wire Wire Line
	10300 3900 10000 3900
Wire Wire Line
	10000 3900 10000 3250
Connection ~ 10000 3250
Wire Wire Line
	10000 3250 10150 3250
$Comp
L Device:R R21
U 1 1 613EB53C
P 7450 5650
F 0 "R21" H 7520 5696 50  0000 L CNN
F 1 "100R" H 7520 5605 50  0000 L CNN
F 2 "Resistor_SMD:R_0603_1608Metric_Pad0.98x0.95mm_HandSolder" V 7380 5650 50  0001 C CNN
F 3 "~" H 7450 5650 50  0001 C CNN
	1    7450 5650
	1    0    0    -1  
$EndComp
$Comp
L power:GND #PWR0114
U 1 1 613EB671
P 7450 5800
F 0 "#PWR0114" H 7450 5550 50  0001 C CNN
F 1 "GND" H 7455 5627 50  0000 C CNN
F 2 "" H 7450 5800 50  0001 C CNN
F 3 "" H 7450 5800 50  0001 C CNN
	1    7450 5800
	1    0    0    -1  
$EndComp
$Comp
L Device:R R11
U 1 1 613EE618
P 7400 3400
F 0 "R11" H 7470 3446 50  0000 L CNN
F 1 "100R" H 7470 3355 50  0000 L CNN
F 2 "Resistor_SMD:R_0603_1608Metric_Pad0.98x0.95mm_HandSolder" V 7330 3400 50  0001 C CNN
F 3 "~" H 7400 3400 50  0001 C CNN
	1    7400 3400
	1    0    0    -1  
$EndComp
$Comp
L power:GND #PWR0115
U 1 1 613EE768
P 7400 3550
F 0 "#PWR0115" H 7400 3300 50  0001 C CNN
F 1 "GND" H 7405 3377 50  0000 C CNN
F 2 "" H 7400 3550 50  0001 C CNN
F 3 "" H 7400 3550 50  0001 C CNN
	1    7400 3550
	1    0    0    -1  
$EndComp
Connection ~ 7400 3250
Wire Wire Line
	7400 3250 7600 3250
Connection ~ 7450 5500
Wire Wire Line
	7450 5500 7050 5500
Wire Wire Line
	4250 2350 4900 2350
Text Label 3000 1000 0    50   ~ 0
Entree
Text Label 4400 1000 0    50   ~ 0
Sortie
$EndSCHEMATC
